<svg id="_004-facebook" data-name="004-facebook" xmlns="http://www.w3.org/2000/svg" width="32.076" height="32.075" viewBox="0 0 32.076 32.075">
  <path id="Path_179" data-name="Path 179" d="M28.066,0H4.009A4.013,4.013,0,0,0,0,4.009V28.066a4.013,4.013,0,0,0,4.009,4.009H28.066a4.013,4.013,0,0,0,4.009-4.009V4.009A4.013,4.013,0,0,0,28.066,0Z" fill="#3b5998"/>
  <path id="Path_180" data-name="Path 180" d="M212.713,109.809h-6.9v-5.523c0-1.525,1.237-1.381,2.762-1.381h2.762V96h-5.524a8.285,8.285,0,0,0-8.285,8.285v5.523H192v6.9h5.524v11.18h8.285v-11.18h4.143Z" transform="translate(-183.979 -95.909)" fill="#fafafa"/>
</svg>
