<svg xmlns="http://www.w3.org/2000/svg" xmlns:xlink="http://www.w3.org/1999/xlink" width="92" height="75" viewBox="0 0 92 75">
  <defs>
    <clipPath id="clip-path">
      <rect id="Rectangle_282" data-name="Rectangle 282" width="92" height="75" transform="translate(1.039 0.872)" fill="#bf1e2d"/>
    </clipPath>
  </defs>
  <g id="HUFUS_icon_upper_left" data-name="HUFUS icon upper left" transform="translate(-1.039 -0.872)" opacity="0.05" clip-path="url(#clip-path)">
    <g id="Group_899" data-name="Group 899" transform="matrix(-0.875, -0.485, 0.485, -0.875, 48.721, 75.734)" opacity="0.98">
      <path id="Path_536" data-name="Path 536" d="M29.8,75.795H0V45.1L44.808,0H75.272V30.85ZM70.543,4.763H46.582L4.74,47.184V71.055H28.292L70.543,28.486Z" transform="translate(0.273 0)" fill="#bf1e2d"/>
      <path id="Path_537" data-name="Path 537" d="M29.8,75.795H0V45.1L44.808,0H75.272V30.85ZM70.543,4.763H46.582L4.74,47.184V71.055H28.292L70.543,28.486Z" transform="translate(0.273 0)" fill="#bf1e2d"/>
      <path id="Path_538" data-name="Path 538" d="M75.817,45.468v29.8H45.127L0,30.463V0H30.873ZM4.785,4.729V28.69L47.207,70.543H71.077V46.98L28.508,4.729Z" transform="translate(0 0.261)" fill="#bf1e2d"/>
      <path id="Path_539" data-name="Path 539" d="M0,0H50.015V50.39H0ZM46.229,3.865H3.842v42.66H46.229Z" transform="translate(12.879 12.686)" fill="#bf1e2d"/>
    </g>
  </g>
</svg>
