<svg xmlns="http://www.w3.org/2000/svg" xmlns:xlink="http://www.w3.org/1999/xlink" width="125.987" height="104.059" viewBox="0 0 125.987 104.059">
  <defs>
    <clipPath id="clip-path">
      <rect id="Rectangle_283" data-name="Rectangle 283" width="125.987" height="104.059" transform="translate(0 0)" fill="#bf1e2d"/>
    </clipPath>
  </defs>
  <g id="HUFUS_icon_lower_right" data-name="HUFUS icon lower right" opacity="0.05" clip-path="url(#clip-path)">
    <g id="Group_900" data-name="Group 900" transform="matrix(0.875, 0.485, -0.485, 0.875, 60.686, 0.769)" opacity="0.98">
      <path id="Path_540" data-name="Path 540" d="M40.891,103.989H0V61.882L61.476,0h41.8V42.325ZM96.784,6.534H63.909L6.5,64.736v32.75H38.817l57.968-58.4Z" transform="translate(0.374 0)" fill="#bf1e2d"/>
      <path id="Path_541" data-name="Path 541" d="M40.891,103.989H0V61.882L61.476,0h41.8V42.325ZM96.784,6.534H63.909L6.5,64.736v32.75H38.817l57.968-58.4Z" transform="translate(0.374 0)" fill="#bf1e2d"/>
      <path id="Path_542" data-name="Path 542" d="M104.02,62.381v40.891H61.913L0,41.8V0H42.357ZM6.566,6.488V39.362l58.2,57.422h32.75V64.455L39.113,6.488Z" transform="translate(0 0.359)" fill="#bf1e2d"/>
      <path id="Path_543" data-name="Path 543" d="M0,0H68.619V69.134H0ZM63.426,5.3H5.271V63.831H63.426Z" transform="translate(17.669 17.404)" fill="#bf1e2d"/>
    </g>
  </g>
</svg>
